(kicad_sch (version 20230121) (generator eeschema)

  (uuid d74bc878-f8ca-474f-a1fa-b401235c4d2e)

  (paper "A4")

  (lib_symbols
    (symbol "Connector:Screw_Terminal_01x02" (pin_names (offset 1.016) hide) (in_bom yes) (on_board yes)
      (property "Reference" "J" (at 0 2.54 0)
        (effects (font (size 1.27 1.27)))
      )
      (property "Value" "Screw_Terminal_01x02" (at 0 -5.08 0)
        (effects (font (size 1.27 1.27)))
      )
      (property "Footprint" "" (at 0 0 0)
        (effects (font (size 1.27 1.27)) hide)
      )
      (property "Datasheet" "~" (at 0 0 0)
        (effects (font (size 1.27 1.27)) hide)
      )
      (property "ki_keywords" "screw terminal" (at 0 0 0)
        (effects (font (size 1.27 1.27)) hide)
      )
      (property "ki_description" "Generic screw terminal, single row, 01x02, script generated (kicad-library-utils/schlib/autogen/connector/)" (at 0 0 0)
        (effects (font (size 1.27 1.27)) hide)
      )
      (property "ki_fp_filters" "TerminalBlock*:*" (at 0 0 0)
        (effects (font (size 1.27 1.27)) hide)
      )
      (symbol "Screw_Terminal_01x02_1_1"
        (rectangle (start -1.27 1.27) (end 1.27 -3.81)
          (stroke (width 0.254) (type default))
          (fill (type background))
        )
        (circle (center 0 -2.54) (radius 0.635)
          (stroke (width 0.1524) (type default))
          (fill (type none))
        )
        (polyline
          (pts
            (xy -0.5334 -2.2098)
            (xy 0.3302 -3.048)
          )
          (stroke (width 0.1524) (type default))
          (fill (type none))
        )
        (polyline
          (pts
            (xy -0.5334 0.3302)
            (xy 0.3302 -0.508)
          )
          (stroke (width 0.1524) (type default))
          (fill (type none))
        )
        (polyline
          (pts
            (xy -0.3556 -2.032)
            (xy 0.508 -2.8702)
          )
          (stroke (width 0.1524) (type default))
          (fill (type none))
        )
        (polyline
          (pts
            (xy -0.3556 0.508)
            (xy 0.508 -0.3302)
          )
          (stroke (width 0.1524) (type default))
          (fill (type none))
        )
        (circle (center 0 0) (radius 0.635)
          (stroke (width 0.1524) (type default))
          (fill (type none))
        )
        (pin passive line (at -5.08 0 0) (length 3.81)
          (name "Pin_1" (effects (font (size 1.27 1.27))))
          (number "1" (effects (font (size 1.27 1.27))))
        )
        (pin passive line (at -5.08 -2.54 0) (length 3.81)
          (name "Pin_2" (effects (font (size 1.27 1.27))))
          (number "2" (effects (font (size 1.27 1.27))))
        )
      )
    )
    (symbol "Device:C" (pin_numbers hide) (pin_names (offset 0.254)) (in_bom yes) (on_board yes)
      (property "Reference" "C" (at 0.635 2.54 0)
        (effects (font (size 1.27 1.27)) (justify left))
      )
      (property "Value" "C" (at 0.635 -2.54 0)
        (effects (font (size 1.27 1.27)) (justify left))
      )
      (property "Footprint" "" (at 0.9652 -3.81 0)
        (effects (font (size 1.27 1.27)) hide)
      )
      (property "Datasheet" "~" (at 0 0 0)
        (effects (font (size 1.27 1.27)) hide)
      )
      (property "ki_keywords" "cap capacitor" (at 0 0 0)
        (effects (font (size 1.27 1.27)) hide)
      )
      (property "ki_description" "Unpolarized capacitor" (at 0 0 0)
        (effects (font (size 1.27 1.27)) hide)
      )
      (property "ki_fp_filters" "C_*" (at 0 0 0)
        (effects (font (size 1.27 1.27)) hide)
      )
      (symbol "C_0_1"
        (polyline
          (pts
            (xy -2.032 -0.762)
            (xy 2.032 -0.762)
          )
          (stroke (width 0.508) (type default))
          (fill (type none))
        )
        (polyline
          (pts
            (xy -2.032 0.762)
            (xy 2.032 0.762)
          )
          (stroke (width 0.508) (type default))
          (fill (type none))
        )
      )
      (symbol "C_1_1"
        (pin passive line (at 0 3.81 270) (length 2.794)
          (name "~" (effects (font (size 1.27 1.27))))
          (number "1" (effects (font (size 1.27 1.27))))
        )
        (pin passive line (at 0 -3.81 90) (length 2.794)
          (name "~" (effects (font (size 1.27 1.27))))
          (number "2" (effects (font (size 1.27 1.27))))
        )
      )
    )
    (symbol "Sensor_Current:ACS723xLCTR-10AB" (in_bom yes) (on_board yes)
      (property "Reference" "U" (at 2.54 11.43 0)
        (effects (font (size 1.27 1.27)) (justify left))
      )
      (property "Value" "ACS723xLCTR-10AB" (at 2.54 8.89 0)
        (effects (font (size 1.27 1.27)) (justify left))
      )
      (property "Footprint" "Package_SO:SOIC-8_3.9x4.9mm_P1.27mm" (at 2.54 -8.89 0)
        (effects (font (size 1.27 1.27) italic) (justify left) hide)
      )
      (property "Datasheet" "http://www.allegromicro.com/~/media/Files/Datasheets/ACS723-Datasheet.ashx?la=en" (at 0 0 0)
        (effects (font (size 1.27 1.27)) hide)
      )
      (property "ki_keywords" "hall effect current monitor sensor isolated" (at 0 0 0)
        (effects (font (size 1.27 1.27)) hide)
      )
      (property "ki_description" "±10A Bidirectional Hall-Effect Current Sensor, +5.0V supply, 200mV/A, SOIC-8" (at 0 0 0)
        (effects (font (size 1.27 1.27)) hide)
      )
      (property "ki_fp_filters" "SOIC*3.9x4.9mm*P1.27mm*" (at 0 0 0)
        (effects (font (size 1.27 1.27)) hide)
      )
      (symbol "ACS723xLCTR-10AB_0_1"
        (rectangle (start -7.62 7.62) (end 7.62 -7.62)
          (stroke (width 0.254) (type default))
          (fill (type background))
        )
      )
      (symbol "ACS723xLCTR-10AB_1_1"
        (pin passive line (at -10.16 5.08 0) (length 2.54)
          (name "IP+" (effects (font (size 1.27 1.27))))
          (number "1" (effects (font (size 1.27 1.27))))
        )
        (pin passive line (at -10.16 5.08 0) (length 2.54) hide
          (name "IP+" (effects (font (size 1.27 1.27))))
          (number "2" (effects (font (size 1.27 1.27))))
        )
        (pin passive line (at -10.16 -2.54 0) (length 2.54)
          (name "IP-" (effects (font (size 1.27 1.27))))
          (number "3" (effects (font (size 1.27 1.27))))
        )
        (pin passive line (at -10.16 -2.54 0) (length 2.54) hide
          (name "IP-" (effects (font (size 1.27 1.27))))
          (number "4" (effects (font (size 1.27 1.27))))
        )
        (pin power_in line (at 0 -10.16 90) (length 2.54)
          (name "GND" (effects (font (size 1.27 1.27))))
          (number "5" (effects (font (size 1.27 1.27))))
        )
        (pin input line (at 10.16 -2.54 180) (length 2.54)
          (name "BW_SEL" (effects (font (size 1.27 1.27))))
          (number "6" (effects (font (size 1.27 1.27))))
        )
        (pin output line (at 10.16 5.08 180) (length 2.54)
          (name "VIOUT" (effects (font (size 1.27 1.27))))
          (number "7" (effects (font (size 1.27 1.27))))
        )
        (pin power_in line (at 0 10.16 270) (length 2.54)
          (name "VCC" (effects (font (size 1.27 1.27))))
          (number "8" (effects (font (size 1.27 1.27))))
        )
      )
    )
    (symbol "power:+5V" (power) (pin_names (offset 0)) (in_bom yes) (on_board yes)
      (property "Reference" "#PWR" (at 0 -3.81 0)
        (effects (font (size 1.27 1.27)) hide)
      )
      (property "Value" "+5V" (at 0 3.556 0)
        (effects (font (size 1.27 1.27)))
      )
      (property "Footprint" "" (at 0 0 0)
        (effects (font (size 1.27 1.27)) hide)
      )
      (property "Datasheet" "" (at 0 0 0)
        (effects (font (size 1.27 1.27)) hide)
      )
      (property "ki_keywords" "global power" (at 0 0 0)
        (effects (font (size 1.27 1.27)) hide)
      )
      (property "ki_description" "Power symbol creates a global label with name \"+5V\"" (at 0 0 0)
        (effects (font (size 1.27 1.27)) hide)
      )
      (symbol "+5V_0_1"
        (polyline
          (pts
            (xy -0.762 1.27)
            (xy 0 2.54)
          )
          (stroke (width 0) (type default))
          (fill (type none))
        )
        (polyline
          (pts
            (xy 0 0)
            (xy 0 2.54)
          )
          (stroke (width 0) (type default))
          (fill (type none))
        )
        (polyline
          (pts
            (xy 0 2.54)
            (xy 0.762 1.27)
          )
          (stroke (width 0) (type default))
          (fill (type none))
        )
      )
      (symbol "+5V_1_1"
        (pin power_in line (at 0 0 90) (length 0) hide
          (name "+5V" (effects (font (size 1.27 1.27))))
          (number "1" (effects (font (size 1.27 1.27))))
        )
      )
    )
    (symbol "power:GND" (power) (pin_names (offset 0)) (in_bom yes) (on_board yes)
      (property "Reference" "#PWR" (at 0 -6.35 0)
        (effects (font (size 1.27 1.27)) hide)
      )
      (property "Value" "GND" (at 0 -3.81 0)
        (effects (font (size 1.27 1.27)))
      )
      (property "Footprint" "" (at 0 0 0)
        (effects (font (size 1.27 1.27)) hide)
      )
      (property "Datasheet" "" (at 0 0 0)
        (effects (font (size 1.27 1.27)) hide)
      )
      (property "ki_keywords" "global power" (at 0 0 0)
        (effects (font (size 1.27 1.27)) hide)
      )
      (property "ki_description" "Power symbol creates a global label with name \"GND\" , ground" (at 0 0 0)
        (effects (font (size 1.27 1.27)) hide)
      )
      (symbol "GND_0_1"
        (polyline
          (pts
            (xy 0 0)
            (xy 0 -1.27)
            (xy 1.27 -1.27)
            (xy 0 -2.54)
            (xy -1.27 -1.27)
            (xy 0 -1.27)
          )
          (stroke (width 0) (type default))
          (fill (type none))
        )
      )
      (symbol "GND_1_1"
        (pin power_in line (at 0 0 270) (length 0) hide
          (name "GND" (effects (font (size 1.27 1.27))))
          (number "1" (effects (font (size 1.27 1.27))))
        )
      )
    )
  )

  (junction (at 133.35 149.86) (diameter 0) (color 0 0 0 0)
    (uuid 0071f64b-38ef-4d96-a93c-cef9e3a4c09d)
  )
  (junction (at 88.9 62.23) (diameter 0) (color 0 0 0 0)
    (uuid 2078bd9f-106c-49f8-a544-7fe1ecc0140c)
  )
  (junction (at 95.25 128.27) (diameter 0) (color 0 0 0 0)
    (uuid 55a5e5ac-55e0-4bf6-a749-038aea9353cb)
  )
  (junction (at 194.31 68.58) (diameter 0) (color 0 0 0 0)
    (uuid 9dfb4950-862e-4c73-9326-141d9412fa29)
  )
  (junction (at 127 83.82) (diameter 0) (color 0 0 0 0)
    (uuid c4a5084a-5530-4ed2-ad49-f80004f4320d)
  )
  (junction (at 237.49 90.17) (diameter 0) (color 0 0 0 0)
    (uuid cbf82d56-0ceb-44ee-a1f7-abc368dc293f)
  )

  (wire (pts (xy 237.49 99.06) (xy 237.49 97.79))
    (stroke (width 0) (type default))
    (uuid 0feca762-829e-499d-8eb0-e28f75527f0e)
  )
  (wire (pts (xy 88.9 59.69) (xy 88.9 62.23))
    (stroke (width 0) (type default))
    (uuid 13a24544-187d-4a17-a671-a99f340393ec)
  )
  (wire (pts (xy 127 83.82) (xy 137.16 83.82))
    (stroke (width 0) (type default))
    (uuid 1ba9db39-b0e3-444f-af8e-63ee97ad4185)
  )
  (wire (pts (xy 106.68 62.23) (xy 88.9 62.23))
    (stroke (width 0) (type default))
    (uuid 1f33c571-b1c4-419a-8494-0aa5e2322d36)
  )
  (wire (pts (xy 133.35 149.86) (xy 142.24 149.86))
    (stroke (width 0) (type default))
    (uuid 2175f85b-ed9c-47f5-975f-f8439a2cdef1)
  )
  (wire (pts (xy 212.09 105.41) (xy 212.09 110.49))
    (stroke (width 0) (type default))
    (uuid 2dde42cf-5b0f-461e-8b17-4a152938112e)
  )
  (wire (pts (xy 113.03 128.27) (xy 95.25 128.27))
    (stroke (width 0) (type default))
    (uuid 2e5efd5a-7ccf-4f07-86ee-a8c0ab5e9949)
  )
  (wire (pts (xy 95.25 125.73) (xy 95.25 128.27))
    (stroke (width 0) (type default))
    (uuid 3021f476-8bca-4c9f-b05a-3f1aef91d865)
  )
  (wire (pts (xy 123.19 149.86) (xy 133.35 149.86))
    (stroke (width 0) (type default))
    (uuid 305ec262-8300-4610-919b-f4d33583203d)
  )
  (wire (pts (xy 123.19 157.48) (xy 127 157.48))
    (stroke (width 0) (type default))
    (uuid 36e85481-6793-45ac-9ac1-768b4b6a9258)
  )
  (wire (pts (xy 237.49 90.17) (xy 251.46 90.17))
    (stroke (width 0) (type default))
    (uuid 3a74c62d-1e9f-4119-bb0a-33ad9be9ada4)
  )
  (wire (pts (xy 106.68 99.06) (xy 106.68 104.14))
    (stroke (width 0) (type default))
    (uuid 3d15193a-5b1d-4655-90b0-2cab55b9b53f)
  )
  (wire (pts (xy 195.58 97.79) (xy 201.93 97.79))
    (stroke (width 0) (type default))
    (uuid 3e422406-aa02-443d-b38a-ef2d78886f42)
  )
  (wire (pts (xy 195.58 92.71) (xy 195.58 90.17))
    (stroke (width 0) (type default))
    (uuid 41073671-5648-4e3b-a71d-c472808ca253)
  )
  (wire (pts (xy 195.58 95.25) (xy 173.99 95.25))
    (stroke (width 0) (type default))
    (uuid 41fb46ca-ba20-4e1e-8759-e78cab6ca824)
  )
  (wire (pts (xy 194.31 78.74) (xy 194.31 77.47))
    (stroke (width 0) (type default))
    (uuid 4f1e45b2-7637-44a9-b8c8-fe13b389fe9a)
  )
  (wire (pts (xy 226.06 97.79) (xy 226.06 101.6))
    (stroke (width 0) (type default))
    (uuid 54af5077-75e0-497e-ac87-f1bcaa11f6d2)
  )
  (wire (pts (xy 93.98 91.44) (xy 96.52 91.44))
    (stroke (width 0) (type default))
    (uuid 5633d240-5806-4c60-9fbd-b890d4c71432)
  )
  (wire (pts (xy 113.03 165.1) (xy 113.03 170.18))
    (stroke (width 0) (type default))
    (uuid 5683358d-d58b-48bb-882a-f81cb7915913)
  )
  (wire (pts (xy 212.09 68.58) (xy 194.31 68.58))
    (stroke (width 0) (type default))
    (uuid 586c62cf-a013-4bb8-8556-0171b199b683)
  )
  (wire (pts (xy 195.58 95.25) (xy 195.58 97.79))
    (stroke (width 0) (type default))
    (uuid 646552d7-f361-4451-834a-bd677e571bb7)
  )
  (wire (pts (xy 133.35 158.75) (xy 133.35 157.48))
    (stroke (width 0) (type default))
    (uuid 794470d5-ddc4-4c9a-8196-feab987fb5b0)
  )
  (wire (pts (xy 195.58 90.17) (xy 201.93 90.17))
    (stroke (width 0) (type default))
    (uuid 834b7608-1915-4d7e-86e0-49cd77e4b20a)
  )
  (wire (pts (xy 62.23 88.9) (xy 93.98 88.9))
    (stroke (width 0) (type default))
    (uuid 8779df55-4831-4697-b50c-d05df9c65364)
  )
  (wire (pts (xy 88.9 62.23) (xy 88.9 63.5))
    (stroke (width 0) (type default))
    (uuid 8cad6000-db16-4ebe-be30-eab564c8228c)
  )
  (wire (pts (xy 194.31 68.58) (xy 194.31 69.85))
    (stroke (width 0) (type default))
    (uuid 982b809e-dc54-4ad5-8f9d-23f2eba81eae)
  )
  (wire (pts (xy 95.25 128.27) (xy 95.25 129.54))
    (stroke (width 0) (type default))
    (uuid 9b1f4305-c275-421d-a103-feb9f9124120)
  )
  (wire (pts (xy 88.9 72.39) (xy 88.9 71.12))
    (stroke (width 0) (type default))
    (uuid 9b8d5848-6134-4368-9771-fce972a29f26)
  )
  (wire (pts (xy 95.25 138.43) (xy 95.25 137.16))
    (stroke (width 0) (type default))
    (uuid 9bd4c864-3022-4b47-a036-c073c9bd14dc)
  )
  (wire (pts (xy 127 92.71) (xy 127 91.44))
    (stroke (width 0) (type default))
    (uuid a3fb06a2-01dd-47d7-9c82-d66e61de2c29)
  )
  (wire (pts (xy 102.87 154.94) (xy 102.87 157.48))
    (stroke (width 0) (type default))
    (uuid b3cd3333-0629-4655-abc4-6c8e8650923a)
  )
  (wire (pts (xy 93.98 83.82) (xy 96.52 83.82))
    (stroke (width 0) (type default))
    (uuid b6e0e314-6aac-458a-ba54-648378d833ce)
  )
  (wire (pts (xy 222.25 97.79) (xy 226.06 97.79))
    (stroke (width 0) (type default))
    (uuid bf40ed7f-eb34-4648-83cd-0ff3dd379990)
  )
  (wire (pts (xy 116.84 83.82) (xy 127 83.82))
    (stroke (width 0) (type default))
    (uuid c218b491-48ad-4056-a9f5-d1642752857c)
  )
  (wire (pts (xy 68.58 154.94) (xy 102.87 154.94))
    (stroke (width 0) (type default))
    (uuid c23b7ab1-4d1e-43e0-9e6b-83a2458b65af)
  )
  (wire (pts (xy 93.98 86.36) (xy 93.98 83.82))
    (stroke (width 0) (type default))
    (uuid c4e3d5fb-0619-494c-9dca-aa42a0b32df2)
  )
  (wire (pts (xy 106.68 78.74) (xy 106.68 62.23))
    (stroke (width 0) (type default))
    (uuid cae1ffd5-4fd5-4da7-869f-37877849078a)
  )
  (wire (pts (xy 173.99 92.71) (xy 195.58 92.71))
    (stroke (width 0) (type default))
    (uuid cc0c7a9a-4351-4df9-96a8-37eb2ba09bd1)
  )
  (wire (pts (xy 212.09 85.09) (xy 212.09 68.58))
    (stroke (width 0) (type default))
    (uuid d51a8dc9-f185-47b2-8a37-549205c6bbb1)
  )
  (wire (pts (xy 102.87 152.4) (xy 102.87 149.86))
    (stroke (width 0) (type default))
    (uuid d54853f1-4386-4d7e-ac26-6aea1cb840f0)
  )
  (wire (pts (xy 120.65 91.44) (xy 120.65 95.25))
    (stroke (width 0) (type default))
    (uuid da09b358-d9cd-451a-acec-f70767a6f47c)
  )
  (wire (pts (xy 194.31 66.04) (xy 194.31 68.58))
    (stroke (width 0) (type default))
    (uuid da653929-10fe-4e1b-9091-f332c12c6706)
  )
  (wire (pts (xy 93.98 88.9) (xy 93.98 91.44))
    (stroke (width 0) (type default))
    (uuid def98d97-d1c8-44e9-9d17-7853c9e7073b)
  )
  (wire (pts (xy 113.03 144.78) (xy 113.03 128.27))
    (stroke (width 0) (type default))
    (uuid e73ffd8d-1437-453b-bf3b-efec7f674b7f)
  )
  (wire (pts (xy 68.58 152.4) (xy 102.87 152.4))
    (stroke (width 0) (type default))
    (uuid ecbbd148-1b9a-4a9c-89d5-847ee6fb1c3c)
  )
  (wire (pts (xy 127 157.48) (xy 127 161.29))
    (stroke (width 0) (type default))
    (uuid edb4d18c-291d-4648-8b23-2b63e5f40ee5)
  )
  (wire (pts (xy 116.84 91.44) (xy 120.65 91.44))
    (stroke (width 0) (type default))
    (uuid ee8d2c41-f830-40ed-a836-2c2a31f6afd4)
  )
  (wire (pts (xy 62.23 86.36) (xy 93.98 86.36))
    (stroke (width 0) (type default))
    (uuid f1fe41af-d8b1-4530-98f0-54cfc0177a3d)
  )
  (wire (pts (xy 222.25 90.17) (xy 237.49 90.17))
    (stroke (width 0) (type default))
    (uuid fe812f3f-f618-4868-9a80-80650fdc3faa)
  )

  (label "LOAD_Coil_1" (at 63.5 88.9 0) (fields_autoplaced)
    (effects (font (size 1.27 1.27)) (justify left bottom))
    (uuid 4d3aa707-76a8-4bad-826b-959c3bdddfe1)
  )
  (label "Power_supply_48V" (at 63.5 86.36 0) (fields_autoplaced)
    (effects (font (size 1.27 1.27)) (justify left bottom))
    (uuid 82deae96-2e28-44f8-ae2c-00bbe287f047)
  )
  (label "Power_supply_48V" (at 68.58 152.4 0) (fields_autoplaced)
    (effects (font (size 1.27 1.27)) (justify left bottom))
    (uuid 8738f247-426b-457a-9e94-319d17cfc27e)
  )
  (label "LOAD_Coil_3" (at 173.99 95.25 0) (fields_autoplaced)
    (effects (font (size 1.27 1.27)) (justify left bottom))
    (uuid 8c1581a8-bbd4-4d66-b331-927c17613760)
  )
  (label "LOAD_Coil_2" (at 68.58 154.94 0) (fields_autoplaced)
    (effects (font (size 1.27 1.27)) (justify left bottom))
    (uuid a790021a-ee75-412a-9df1-7664b4e893bf)
  )
  (label "Power_supply_48V" (at 173.99 92.71 0) (fields_autoplaced)
    (effects (font (size 1.27 1.27)) (justify left bottom))
    (uuid ec9f74e0-db2b-47cc-bf5b-00869fbfa73a)
  )

  (hierarchical_label "CURRENT_SESOR_OUT_2" (shape output) (at 142.24 149.86 0) (fields_autoplaced)
    (effects (font (size 1.27 1.27)) (justify left))
    (uuid 202a2842-1bfd-4570-8dcb-a37bba605a1d)
  )
  (hierarchical_label "CURRENT_SESOR_OUT_1" (shape output) (at 137.16 83.82 0) (fields_autoplaced)
    (effects (font (size 1.27 1.27)) (justify left))
    (uuid 26ab6f32-c73a-45d4-b9f7-2edac1c3d1cc)
  )
  (hierarchical_label "CURRENT_SESOR_OUT_3" (shape output) (at 251.46 90.17 0) (fields_autoplaced)
    (effects (font (size 1.27 1.27)) (justify left))
    (uuid d8b74e54-bfa6-417a-9fb9-b6f66c318c40)
  )

  (symbol (lib_id "Connector:Screw_Terminal_01x02") (at 63.5 154.94 180) (unit 1)
    (in_bom yes) (on_board yes) (dnp no) (fields_autoplaced)
    (uuid 08483b83-b655-4aea-874f-8dca627a1137)
    (property "Reference" "J9" (at 63.5 147.32 0)
      (effects (font (size 1.27 1.27)))
    )
    (property "Value" "V_in_DRV" (at 63.5 149.86 0)
      (effects (font (size 1.27 1.27)))
    )
    (property "Footprint" "" (at 63.5 154.94 0)
      (effects (font (size 1.27 1.27)) hide)
    )
    (property "Datasheet" "~" (at 63.5 154.94 0)
      (effects (font (size 1.27 1.27)) hide)
    )
    (pin "1" (uuid 28908d09-805b-4578-81a2-ca16b98269d3))
    (pin "2" (uuid 3f850d0f-89de-415c-b2c1-01654c2b01bc))
    (instances
      (project "Helmholtz-Cage-PCB"
        (path "/d9aaf895-1acf-4d4a-8c6d-173b9df47c18"
          (reference "J9") (unit 1)
        )
        (path "/d9aaf895-1acf-4d4a-8c6d-173b9df47c18/b33baa5a-bae5-48bd-8105-ba99a8d4760e"
          (reference "J1") (unit 1)
        )
        (path "/d9aaf895-1acf-4d4a-8c6d-173b9df47c18/807fbcf0-e937-4278-ae9b-91465801146a"
          (reference "J4") (unit 1)
        )
        (path "/d9aaf895-1acf-4d4a-8c6d-173b9df47c18/45804b70-aff4-47bf-b1f3-3d0541769f5c"
          (reference "J6") (unit 1)
        )
        (path "/d9aaf895-1acf-4d4a-8c6d-173b9df47c18/1394f77f-d475-4df0-9aeb-c92de9eae438"
          (reference "J8") (unit 1)
        )
      )
    )
  )

  (symbol (lib_id "Device:C") (at 133.35 153.67 0) (unit 1)
    (in_bom yes) (on_board yes) (dnp no) (fields_autoplaced)
    (uuid 0ca78afa-9525-4b56-9636-a8efadd1f3f2)
    (property "Reference" "C16" (at 137.16 152.4 0)
      (effects (font (size 1.27 1.27)) (justify left))
    )
    (property "Value" "10n" (at 137.16 154.94 0)
      (effects (font (size 1.27 1.27)) (justify left))
    )
    (property "Footprint" "" (at 134.3152 157.48 0)
      (effects (font (size 1.27 1.27)) hide)
    )
    (property "Datasheet" "~" (at 133.35 153.67 0)
      (effects (font (size 1.27 1.27)) hide)
    )
    (pin "1" (uuid 4fe4608d-db99-4c4e-9d23-e1813c27bd3b))
    (pin "2" (uuid 7aef1be1-6046-4654-9c6f-d78c64e83eb9))
    (instances
      (project "Helmholtz-Cage-PCB"
        (path "/d9aaf895-1acf-4d4a-8c6d-173b9df47c18/1394f77f-d475-4df0-9aeb-c92de9eae438"
          (reference "C16") (unit 1)
        )
      )
    )
  )

  (symbol (lib_id "power:GND") (at 226.06 101.6 0) (unit 1)
    (in_bom yes) (on_board yes) (dnp no) (fields_autoplaced)
    (uuid 0cfcfc03-bfb3-42a1-8317-34ab5514e621)
    (property "Reference" "#PWR040" (at 226.06 107.95 0)
      (effects (font (size 1.27 1.27)) hide)
    )
    (property "Value" "GND" (at 226.06 106.68 0)
      (effects (font (size 1.27 1.27)))
    )
    (property "Footprint" "" (at 226.06 101.6 0)
      (effects (font (size 1.27 1.27)) hide)
    )
    (property "Datasheet" "" (at 226.06 101.6 0)
      (effects (font (size 1.27 1.27)) hide)
    )
    (pin "1" (uuid d57abcec-6693-4d57-a920-7f097d97ca5b))
    (instances
      (project "Helmholtz-Cage-PCB"
        (path "/d9aaf895-1acf-4d4a-8c6d-173b9df47c18"
          (reference "#PWR040") (unit 1)
        )
        (path "/d9aaf895-1acf-4d4a-8c6d-173b9df47c18/b33baa5a-bae5-48bd-8105-ba99a8d4760e"
          (reference "#PWR05") (unit 1)
        )
        (path "/d9aaf895-1acf-4d4a-8c6d-173b9df47c18/807fbcf0-e937-4278-ae9b-91465801146a"
          (reference "#PWR010") (unit 1)
        )
        (path "/d9aaf895-1acf-4d4a-8c6d-173b9df47c18/45804b70-aff4-47bf-b1f3-3d0541769f5c"
          (reference "#PWR016") (unit 1)
        )
        (path "/d9aaf895-1acf-4d4a-8c6d-173b9df47c18/1394f77f-d475-4df0-9aeb-c92de9eae438"
          (reference "#PWR059") (unit 1)
        )
      )
    )
  )

  (symbol (lib_id "Device:C") (at 237.49 93.98 0) (unit 1)
    (in_bom yes) (on_board yes) (dnp no) (fields_autoplaced)
    (uuid 197076e5-32fa-4eb7-9f91-869350ea910f)
    (property "Reference" "C18" (at 241.3 92.71 0)
      (effects (font (size 1.27 1.27)) (justify left))
    )
    (property "Value" "10n" (at 241.3 95.25 0)
      (effects (font (size 1.27 1.27)) (justify left))
    )
    (property "Footprint" "" (at 238.4552 97.79 0)
      (effects (font (size 1.27 1.27)) hide)
    )
    (property "Datasheet" "~" (at 237.49 93.98 0)
      (effects (font (size 1.27 1.27)) hide)
    )
    (pin "1" (uuid fbfe0db5-e277-4a68-92bc-dbd20b27df3f))
    (pin "2" (uuid afaef984-1a57-49cc-9de5-e6dd6929e530))
    (instances
      (project "Helmholtz-Cage-PCB"
        (path "/d9aaf895-1acf-4d4a-8c6d-173b9df47c18/1394f77f-d475-4df0-9aeb-c92de9eae438"
          (reference "C18") (unit 1)
        )
      )
    )
  )

  (symbol (lib_id "power:GND") (at 133.35 158.75 0) (unit 1)
    (in_bom yes) (on_board yes) (dnp no) (fields_autoplaced)
    (uuid 1c4f0415-f94b-40b0-8c9f-a95d7fb5ec67)
    (property "Reference" "#PWR040" (at 133.35 165.1 0)
      (effects (font (size 1.27 1.27)) hide)
    )
    (property "Value" "GND" (at 133.35 163.83 0)
      (effects (font (size 1.27 1.27)))
    )
    (property "Footprint" "" (at 133.35 158.75 0)
      (effects (font (size 1.27 1.27)) hide)
    )
    (property "Datasheet" "" (at 133.35 158.75 0)
      (effects (font (size 1.27 1.27)) hide)
    )
    (pin "1" (uuid 3255a96b-6d33-411c-828a-8dcd56d944f5))
    (instances
      (project "Helmholtz-Cage-PCB"
        (path "/d9aaf895-1acf-4d4a-8c6d-173b9df47c18"
          (reference "#PWR040") (unit 1)
        )
        (path "/d9aaf895-1acf-4d4a-8c6d-173b9df47c18/b33baa5a-bae5-48bd-8105-ba99a8d4760e"
          (reference "#PWR05") (unit 1)
        )
        (path "/d9aaf895-1acf-4d4a-8c6d-173b9df47c18/807fbcf0-e937-4278-ae9b-91465801146a"
          (reference "#PWR010") (unit 1)
        )
        (path "/d9aaf895-1acf-4d4a-8c6d-173b9df47c18/45804b70-aff4-47bf-b1f3-3d0541769f5c"
          (reference "#PWR016") (unit 1)
        )
        (path "/d9aaf895-1acf-4d4a-8c6d-173b9df47c18/1394f77f-d475-4df0-9aeb-c92de9eae438"
          (reference "#PWR055") (unit 1)
        )
      )
    )
  )

  (symbol (lib_id "power:GND") (at 106.68 104.14 0) (unit 1)
    (in_bom yes) (on_board yes) (dnp no) (fields_autoplaced)
    (uuid 3af25503-2de2-40c8-9f32-b100e5a444f6)
    (property "Reference" "#PWR040" (at 106.68 110.49 0)
      (effects (font (size 1.27 1.27)) hide)
    )
    (property "Value" "GND" (at 106.68 109.22 0)
      (effects (font (size 1.27 1.27)))
    )
    (property "Footprint" "" (at 106.68 104.14 0)
      (effects (font (size 1.27 1.27)) hide)
    )
    (property "Datasheet" "" (at 106.68 104.14 0)
      (effects (font (size 1.27 1.27)) hide)
    )
    (pin "1" (uuid 742138d1-a82f-4bc6-b7ad-0c770d57be30))
    (instances
      (project "Helmholtz-Cage-PCB"
        (path "/d9aaf895-1acf-4d4a-8c6d-173b9df47c18"
          (reference "#PWR040") (unit 1)
        )
        (path "/d9aaf895-1acf-4d4a-8c6d-173b9df47c18/b33baa5a-bae5-48bd-8105-ba99a8d4760e"
          (reference "#PWR05") (unit 1)
        )
        (path "/d9aaf895-1acf-4d4a-8c6d-173b9df47c18/807fbcf0-e937-4278-ae9b-91465801146a"
          (reference "#PWR010") (unit 1)
        )
        (path "/d9aaf895-1acf-4d4a-8c6d-173b9df47c18/45804b70-aff4-47bf-b1f3-3d0541769f5c"
          (reference "#PWR016") (unit 1)
        )
        (path "/d9aaf895-1acf-4d4a-8c6d-173b9df47c18/1394f77f-d475-4df0-9aeb-c92de9eae438"
          (reference "#PWR050") (unit 1)
        )
      )
    )
  )

  (symbol (lib_id "power:+5V") (at 88.9 59.69 0) (unit 1)
    (in_bom yes) (on_board yes) (dnp no) (fields_autoplaced)
    (uuid 3f2b70a7-6f43-407f-8518-d76933d029d0)
    (property "Reference" "#PWR023" (at 88.9 63.5 0)
      (effects (font (size 1.27 1.27)) hide)
    )
    (property "Value" "+5V" (at 88.9 55.88 0)
      (effects (font (size 1.27 1.27)))
    )
    (property "Footprint" "" (at 88.9 59.69 0)
      (effects (font (size 1.27 1.27)) hide)
    )
    (property "Datasheet" "" (at 88.9 59.69 0)
      (effects (font (size 1.27 1.27)) hide)
    )
    (pin "1" (uuid c977a858-ccb5-474c-bf15-846b1bb57f23))
    (instances
      (project "Helmholtz-Cage-PCB"
        (path "/d9aaf895-1acf-4d4a-8c6d-173b9df47c18"
          (reference "#PWR023") (unit 1)
        )
        (path "/d9aaf895-1acf-4d4a-8c6d-173b9df47c18/1394f77f-d475-4df0-9aeb-c92de9eae438"
          (reference "#PWR046") (unit 1)
        )
      )
    )
  )

  (symbol (lib_id "power:GND") (at 88.9 72.39 0) (unit 1)
    (in_bom yes) (on_board yes) (dnp no) (fields_autoplaced)
    (uuid 450144b6-6c68-4f06-853b-ecc0d546c41d)
    (property "Reference" "#PWR040" (at 88.9 78.74 0)
      (effects (font (size 1.27 1.27)) hide)
    )
    (property "Value" "GND" (at 88.9 77.47 0)
      (effects (font (size 1.27 1.27)))
    )
    (property "Footprint" "" (at 88.9 72.39 0)
      (effects (font (size 1.27 1.27)) hide)
    )
    (property "Datasheet" "" (at 88.9 72.39 0)
      (effects (font (size 1.27 1.27)) hide)
    )
    (pin "1" (uuid 1bce4964-10c6-4e16-8ad7-cd72f5676e13))
    (instances
      (project "Helmholtz-Cage-PCB"
        (path "/d9aaf895-1acf-4d4a-8c6d-173b9df47c18"
          (reference "#PWR040") (unit 1)
        )
        (path "/d9aaf895-1acf-4d4a-8c6d-173b9df47c18/b33baa5a-bae5-48bd-8105-ba99a8d4760e"
          (reference "#PWR05") (unit 1)
        )
        (path "/d9aaf895-1acf-4d4a-8c6d-173b9df47c18/807fbcf0-e937-4278-ae9b-91465801146a"
          (reference "#PWR010") (unit 1)
        )
        (path "/d9aaf895-1acf-4d4a-8c6d-173b9df47c18/45804b70-aff4-47bf-b1f3-3d0541769f5c"
          (reference "#PWR016") (unit 1)
        )
        (path "/d9aaf895-1acf-4d4a-8c6d-173b9df47c18/1394f77f-d475-4df0-9aeb-c92de9eae438"
          (reference "#PWR047") (unit 1)
        )
      )
    )
  )

  (symbol (lib_id "power:GND") (at 194.31 78.74 0) (unit 1)
    (in_bom yes) (on_board yes) (dnp no) (fields_autoplaced)
    (uuid 4d2cdaa2-1332-4a81-960f-0af499ca943f)
    (property "Reference" "#PWR040" (at 194.31 85.09 0)
      (effects (font (size 1.27 1.27)) hide)
    )
    (property "Value" "GND" (at 194.31 83.82 0)
      (effects (font (size 1.27 1.27)))
    )
    (property "Footprint" "" (at 194.31 78.74 0)
      (effects (font (size 1.27 1.27)) hide)
    )
    (property "Datasheet" "" (at 194.31 78.74 0)
      (effects (font (size 1.27 1.27)) hide)
    )
    (pin "1" (uuid 10dc2d08-639e-4a02-b28b-fce1c2dc28ec))
    (instances
      (project "Helmholtz-Cage-PCB"
        (path "/d9aaf895-1acf-4d4a-8c6d-173b9df47c18"
          (reference "#PWR040") (unit 1)
        )
        (path "/d9aaf895-1acf-4d4a-8c6d-173b9df47c18/b33baa5a-bae5-48bd-8105-ba99a8d4760e"
          (reference "#PWR05") (unit 1)
        )
        (path "/d9aaf895-1acf-4d4a-8c6d-173b9df47c18/807fbcf0-e937-4278-ae9b-91465801146a"
          (reference "#PWR010") (unit 1)
        )
        (path "/d9aaf895-1acf-4d4a-8c6d-173b9df47c18/45804b70-aff4-47bf-b1f3-3d0541769f5c"
          (reference "#PWR016") (unit 1)
        )
        (path "/d9aaf895-1acf-4d4a-8c6d-173b9df47c18/1394f77f-d475-4df0-9aeb-c92de9eae438"
          (reference "#PWR057") (unit 1)
        )
      )
    )
  )

  (symbol (lib_id "power:+5V") (at 95.25 125.73 0) (unit 1)
    (in_bom yes) (on_board yes) (dnp no) (fields_autoplaced)
    (uuid 4eb31dc0-3e28-41e4-9cd0-4d108bd4ceeb)
    (property "Reference" "#PWR023" (at 95.25 129.54 0)
      (effects (font (size 1.27 1.27)) hide)
    )
    (property "Value" "+5V" (at 95.25 121.92 0)
      (effects (font (size 1.27 1.27)))
    )
    (property "Footprint" "" (at 95.25 125.73 0)
      (effects (font (size 1.27 1.27)) hide)
    )
    (property "Datasheet" "" (at 95.25 125.73 0)
      (effects (font (size 1.27 1.27)) hide)
    )
    (pin "1" (uuid c0ddd3a2-58f0-4c49-937a-6be960f28158))
    (instances
      (project "Helmholtz-Cage-PCB"
        (path "/d9aaf895-1acf-4d4a-8c6d-173b9df47c18"
          (reference "#PWR023") (unit 1)
        )
        (path "/d9aaf895-1acf-4d4a-8c6d-173b9df47c18/1394f77f-d475-4df0-9aeb-c92de9eae438"
          (reference "#PWR048") (unit 1)
        )
      )
    )
  )

  (symbol (lib_id "Device:C") (at 127 87.63 0) (unit 1)
    (in_bom yes) (on_board yes) (dnp no) (fields_autoplaced)
    (uuid 4ec9cdd4-8bda-46f1-8c9f-56242327cdd8)
    (property "Reference" "C15" (at 130.81 86.36 0)
      (effects (font (size 1.27 1.27)) (justify left))
    )
    (property "Value" "10n" (at 130.81 88.9 0)
      (effects (font (size 1.27 1.27)) (justify left))
    )
    (property "Footprint" "" (at 127.9652 91.44 0)
      (effects (font (size 1.27 1.27)) hide)
    )
    (property "Datasheet" "~" (at 127 87.63 0)
      (effects (font (size 1.27 1.27)) hide)
    )
    (pin "1" (uuid 72bd2b57-b338-49a5-8cf6-32fa3f9c25a5))
    (pin "2" (uuid 3f4a3833-381c-4648-96b4-9d8ae3aea186))
    (instances
      (project "Helmholtz-Cage-PCB"
        (path "/d9aaf895-1acf-4d4a-8c6d-173b9df47c18/1394f77f-d475-4df0-9aeb-c92de9eae438"
          (reference "C15") (unit 1)
        )
      )
    )
  )

  (symbol (lib_id "power:+5V") (at 194.31 66.04 0) (unit 1)
    (in_bom yes) (on_board yes) (dnp no) (fields_autoplaced)
    (uuid 5010a6b7-4737-484f-a5de-29902e554900)
    (property "Reference" "#PWR023" (at 194.31 69.85 0)
      (effects (font (size 1.27 1.27)) hide)
    )
    (property "Value" "+5V" (at 194.31 62.23 0)
      (effects (font (size 1.27 1.27)))
    )
    (property "Footprint" "" (at 194.31 66.04 0)
      (effects (font (size 1.27 1.27)) hide)
    )
    (property "Datasheet" "" (at 194.31 66.04 0)
      (effects (font (size 1.27 1.27)) hide)
    )
    (pin "1" (uuid 3ffb6e74-0cd8-48ed-9aa2-7ad1b0049232))
    (instances
      (project "Helmholtz-Cage-PCB"
        (path "/d9aaf895-1acf-4d4a-8c6d-173b9df47c18"
          (reference "#PWR023") (unit 1)
        )
        (path "/d9aaf895-1acf-4d4a-8c6d-173b9df47c18/1394f77f-d475-4df0-9aeb-c92de9eae438"
          (reference "#PWR056") (unit 1)
        )
      )
    )
  )

  (symbol (lib_id "Device:C") (at 194.31 73.66 0) (unit 1)
    (in_bom yes) (on_board yes) (dnp no) (fields_autoplaced)
    (uuid 61e8c130-d8a6-429d-aa88-122900a91113)
    (property "Reference" "C17" (at 198.12 72.39 0)
      (effects (font (size 1.27 1.27)) (justify left))
    )
    (property "Value" "0.1u" (at 198.12 74.93 0)
      (effects (font (size 1.27 1.27)) (justify left))
    )
    (property "Footprint" "" (at 195.2752 77.47 0)
      (effects (font (size 1.27 1.27)) hide)
    )
    (property "Datasheet" "~" (at 194.31 73.66 0)
      (effects (font (size 1.27 1.27)) hide)
    )
    (pin "1" (uuid fcd050e3-2a4d-4866-951d-ed5ae86f6c6b))
    (pin "2" (uuid 8dcb163a-821c-4f77-9b17-e44e1fbd5047))
    (instances
      (project "Helmholtz-Cage-PCB"
        (path "/d9aaf895-1acf-4d4a-8c6d-173b9df47c18/1394f77f-d475-4df0-9aeb-c92de9eae438"
          (reference "C17") (unit 1)
        )
      )
    )
  )

  (symbol (lib_id "power:GND") (at 120.65 95.25 0) (unit 1)
    (in_bom yes) (on_board yes) (dnp no) (fields_autoplaced)
    (uuid 69647f79-7ed2-4589-93f6-166ea302109e)
    (property "Reference" "#PWR040" (at 120.65 101.6 0)
      (effects (font (size 1.27 1.27)) hide)
    )
    (property "Value" "GND" (at 120.65 100.33 0)
      (effects (font (size 1.27 1.27)))
    )
    (property "Footprint" "" (at 120.65 95.25 0)
      (effects (font (size 1.27 1.27)) hide)
    )
    (property "Datasheet" "" (at 120.65 95.25 0)
      (effects (font (size 1.27 1.27)) hide)
    )
    (pin "1" (uuid ec3b3b9e-e60f-4e96-adf9-58d8e806991e))
    (instances
      (project "Helmholtz-Cage-PCB"
        (path "/d9aaf895-1acf-4d4a-8c6d-173b9df47c18"
          (reference "#PWR040") (unit 1)
        )
        (path "/d9aaf895-1acf-4d4a-8c6d-173b9df47c18/b33baa5a-bae5-48bd-8105-ba99a8d4760e"
          (reference "#PWR05") (unit 1)
        )
        (path "/d9aaf895-1acf-4d4a-8c6d-173b9df47c18/807fbcf0-e937-4278-ae9b-91465801146a"
          (reference "#PWR010") (unit 1)
        )
        (path "/d9aaf895-1acf-4d4a-8c6d-173b9df47c18/45804b70-aff4-47bf-b1f3-3d0541769f5c"
          (reference "#PWR016") (unit 1)
        )
        (path "/d9aaf895-1acf-4d4a-8c6d-173b9df47c18/1394f77f-d475-4df0-9aeb-c92de9eae438"
          (reference "#PWR052") (unit 1)
        )
      )
    )
  )

  (symbol (lib_id "Connector:Screw_Terminal_01x02") (at 57.15 88.9 180) (unit 1)
    (in_bom yes) (on_board yes) (dnp no) (fields_autoplaced)
    (uuid 69f8290d-38ff-4160-b81f-56903ac128cb)
    (property "Reference" "J9" (at 57.15 81.28 0)
      (effects (font (size 1.27 1.27)))
    )
    (property "Value" "V_in_DRV" (at 57.15 83.82 0)
      (effects (font (size 1.27 1.27)))
    )
    (property "Footprint" "" (at 57.15 88.9 0)
      (effects (font (size 1.27 1.27)) hide)
    )
    (property "Datasheet" "~" (at 57.15 88.9 0)
      (effects (font (size 1.27 1.27)) hide)
    )
    (pin "1" (uuid a6f5f3bb-2d7e-4c5f-ac34-b11c2fcecabd))
    (pin "2" (uuid 32489dce-c412-4b29-8e29-546076ab8e78))
    (instances
      (project "Helmholtz-Cage-PCB"
        (path "/d9aaf895-1acf-4d4a-8c6d-173b9df47c18"
          (reference "J9") (unit 1)
        )
        (path "/d9aaf895-1acf-4d4a-8c6d-173b9df47c18/b33baa5a-bae5-48bd-8105-ba99a8d4760e"
          (reference "J1") (unit 1)
        )
        (path "/d9aaf895-1acf-4d4a-8c6d-173b9df47c18/807fbcf0-e937-4278-ae9b-91465801146a"
          (reference "J4") (unit 1)
        )
        (path "/d9aaf895-1acf-4d4a-8c6d-173b9df47c18/45804b70-aff4-47bf-b1f3-3d0541769f5c"
          (reference "J6") (unit 1)
        )
        (path "/d9aaf895-1acf-4d4a-8c6d-173b9df47c18/1394f77f-d475-4df0-9aeb-c92de9eae438"
          (reference "J7") (unit 1)
        )
      )
    )
  )

  (symbol (lib_id "power:GND") (at 113.03 170.18 0) (unit 1)
    (in_bom yes) (on_board yes) (dnp no) (fields_autoplaced)
    (uuid 70f30972-0416-4b3f-b3d2-e9d3edbdca87)
    (property "Reference" "#PWR040" (at 113.03 176.53 0)
      (effects (font (size 1.27 1.27)) hide)
    )
    (property "Value" "GND" (at 113.03 175.26 0)
      (effects (font (size 1.27 1.27)))
    )
    (property "Footprint" "" (at 113.03 170.18 0)
      (effects (font (size 1.27 1.27)) hide)
    )
    (property "Datasheet" "" (at 113.03 170.18 0)
      (effects (font (size 1.27 1.27)) hide)
    )
    (pin "1" (uuid cf20f611-26bd-4bac-9bb7-6ed83aaccf2b))
    (instances
      (project "Helmholtz-Cage-PCB"
        (path "/d9aaf895-1acf-4d4a-8c6d-173b9df47c18"
          (reference "#PWR040") (unit 1)
        )
        (path "/d9aaf895-1acf-4d4a-8c6d-173b9df47c18/b33baa5a-bae5-48bd-8105-ba99a8d4760e"
          (reference "#PWR05") (unit 1)
        )
        (path "/d9aaf895-1acf-4d4a-8c6d-173b9df47c18/807fbcf0-e937-4278-ae9b-91465801146a"
          (reference "#PWR010") (unit 1)
        )
        (path "/d9aaf895-1acf-4d4a-8c6d-173b9df47c18/45804b70-aff4-47bf-b1f3-3d0541769f5c"
          (reference "#PWR016") (unit 1)
        )
        (path "/d9aaf895-1acf-4d4a-8c6d-173b9df47c18/1394f77f-d475-4df0-9aeb-c92de9eae438"
          (reference "#PWR051") (unit 1)
        )
      )
    )
  )

  (symbol (lib_id "Connector:Screw_Terminal_01x02") (at 168.91 95.25 180) (unit 1)
    (in_bom yes) (on_board yes) (dnp no) (fields_autoplaced)
    (uuid 7bd54971-4c37-4a65-91c6-5d67cbd1d2d1)
    (property "Reference" "J9" (at 168.91 87.63 0)
      (effects (font (size 1.27 1.27)))
    )
    (property "Value" "V_in_DRV" (at 168.91 90.17 0)
      (effects (font (size 1.27 1.27)))
    )
    (property "Footprint" "" (at 168.91 95.25 0)
      (effects (font (size 1.27 1.27)) hide)
    )
    (property "Datasheet" "~" (at 168.91 95.25 0)
      (effects (font (size 1.27 1.27)) hide)
    )
    (pin "1" (uuid c9580e6f-497b-4c5e-abe0-a73ed89eefa7))
    (pin "2" (uuid b8a0e96a-56f0-4580-89df-73999a1c584e))
    (instances
      (project "Helmholtz-Cage-PCB"
        (path "/d9aaf895-1acf-4d4a-8c6d-173b9df47c18"
          (reference "J9") (unit 1)
        )
        (path "/d9aaf895-1acf-4d4a-8c6d-173b9df47c18/b33baa5a-bae5-48bd-8105-ba99a8d4760e"
          (reference "J1") (unit 1)
        )
        (path "/d9aaf895-1acf-4d4a-8c6d-173b9df47c18/807fbcf0-e937-4278-ae9b-91465801146a"
          (reference "J4") (unit 1)
        )
        (path "/d9aaf895-1acf-4d4a-8c6d-173b9df47c18/45804b70-aff4-47bf-b1f3-3d0541769f5c"
          (reference "J6") (unit 1)
        )
        (path "/d9aaf895-1acf-4d4a-8c6d-173b9df47c18/1394f77f-d475-4df0-9aeb-c92de9eae438"
          (reference "J9") (unit 1)
        )
      )
    )
  )

  (symbol (lib_id "Device:C") (at 88.9 67.31 0) (unit 1)
    (in_bom yes) (on_board yes) (dnp no) (fields_autoplaced)
    (uuid 940abc3c-a464-45b3-a2a3-50ab7f5698cd)
    (property "Reference" "C13" (at 92.71 66.04 0)
      (effects (font (size 1.27 1.27)) (justify left))
    )
    (property "Value" "0.1u" (at 92.71 68.58 0)
      (effects (font (size 1.27 1.27)) (justify left))
    )
    (property "Footprint" "" (at 89.8652 71.12 0)
      (effects (font (size 1.27 1.27)) hide)
    )
    (property "Datasheet" "~" (at 88.9 67.31 0)
      (effects (font (size 1.27 1.27)) hide)
    )
    (pin "1" (uuid 3a038e9e-f343-4960-b0af-cf30ee8637e1))
    (pin "2" (uuid d384bc8e-6098-4cf7-b406-810299319e90))
    (instances
      (project "Helmholtz-Cage-PCB"
        (path "/d9aaf895-1acf-4d4a-8c6d-173b9df47c18/1394f77f-d475-4df0-9aeb-c92de9eae438"
          (reference "C13") (unit 1)
        )
      )
    )
  )

  (symbol (lib_id "Sensor_Current:ACS723xLCTR-10AB") (at 212.09 95.25 0) (unit 1)
    (in_bom yes) (on_board yes) (dnp no) (fields_autoplaced)
    (uuid a42268fb-e814-4f17-83e4-2aeec8659a7a)
    (property "Reference" "U7" (at 214.0459 82.55 0)
      (effects (font (size 1.27 1.27)) (justify left))
    )
    (property "Value" "ACS723xLCTR-10AB" (at 214.0459 85.09 0)
      (effects (font (size 1.27 1.27)) (justify left))
    )
    (property "Footprint" "Package_SO:SOIC-8_3.9x4.9mm_P1.27mm" (at 214.63 104.14 0)
      (effects (font (size 1.27 1.27) italic) (justify left) hide)
    )
    (property "Datasheet" "http://www.allegromicro.com/~/media/Files/Datasheets/ACS723-Datasheet.ashx?la=en" (at 212.09 95.25 0)
      (effects (font (size 1.27 1.27)) hide)
    )
    (pin "1" (uuid 37f514ca-8888-41bb-877f-d6112fb179b5))
    (pin "2" (uuid 620e9d97-b32d-4826-b0b6-143bb8e9c700))
    (pin "3" (uuid 7884be8c-2c91-454a-8d62-b0a596130f30))
    (pin "4" (uuid c8ea5138-48ca-40d7-aae7-4e4520836a80))
    (pin "5" (uuid 434c2e0b-94f9-4312-a8a7-4bdc2de24624))
    (pin "6" (uuid 2f7dce3b-1b83-4e92-98c5-db12eab99d82))
    (pin "7" (uuid 34697109-d71c-467a-9a97-23bac89400da))
    (pin "8" (uuid 9b436bd2-831c-4d72-a93c-691aa82b3746))
    (instances
      (project "Helmholtz-Cage-PCB"
        (path "/d9aaf895-1acf-4d4a-8c6d-173b9df47c18/1394f77f-d475-4df0-9aeb-c92de9eae438"
          (reference "U7") (unit 1)
        )
      )
    )
  )

  (symbol (lib_id "Sensor_Current:ACS723xLCTR-10AB") (at 106.68 88.9 0) (unit 1)
    (in_bom yes) (on_board yes) (dnp no) (fields_autoplaced)
    (uuid b3ff2a84-a058-4f04-872c-d7726a9665e1)
    (property "Reference" "U5" (at 108.6359 76.2 0)
      (effects (font (size 1.27 1.27)) (justify left))
    )
    (property "Value" "ACS723xLCTR-10AB" (at 108.6359 78.74 0)
      (effects (font (size 1.27 1.27)) (justify left))
    )
    (property "Footprint" "Package_SO:SOIC-8_3.9x4.9mm_P1.27mm" (at 109.22 97.79 0)
      (effects (font (size 1.27 1.27) italic) (justify left) hide)
    )
    (property "Datasheet" "http://www.allegromicro.com/~/media/Files/Datasheets/ACS723-Datasheet.ashx?la=en" (at 106.68 88.9 0)
      (effects (font (size 1.27 1.27)) hide)
    )
    (pin "1" (uuid bb7bf7db-8e03-4089-b489-5ed95f4a2780))
    (pin "2" (uuid 42245ffa-9ba5-4398-b257-99a65563ae22))
    (pin "3" (uuid 290cd809-ab15-48c6-8329-82c2c263b731))
    (pin "4" (uuid a36fd22b-693f-44b3-8f8c-970bf44d59a5))
    (pin "5" (uuid 554d552a-a085-40ec-9d56-04e9758f73d0))
    (pin "6" (uuid b1f49d28-ebd7-4f19-822a-569714e31faa))
    (pin "7" (uuid d31c71bb-abeb-4da9-964b-200d3e13b64a))
    (pin "8" (uuid 8ebe5e36-fb02-4d39-93e2-a3ee0fb7ea41))
    (instances
      (project "Helmholtz-Cage-PCB"
        (path "/d9aaf895-1acf-4d4a-8c6d-173b9df47c18/1394f77f-d475-4df0-9aeb-c92de9eae438"
          (reference "U5") (unit 1)
        )
      )
    )
  )

  (symbol (lib_id "Device:C") (at 95.25 133.35 0) (unit 1)
    (in_bom yes) (on_board yes) (dnp no) (fields_autoplaced)
    (uuid bc254e2c-7b4e-4c2f-b889-98d3b19b25f9)
    (property "Reference" "C14" (at 99.06 132.08 0)
      (effects (font (size 1.27 1.27)) (justify left))
    )
    (property "Value" "0.1u" (at 99.06 134.62 0)
      (effects (font (size 1.27 1.27)) (justify left))
    )
    (property "Footprint" "" (at 96.2152 137.16 0)
      (effects (font (size 1.27 1.27)) hide)
    )
    (property "Datasheet" "~" (at 95.25 133.35 0)
      (effects (font (size 1.27 1.27)) hide)
    )
    (pin "1" (uuid bee7478f-d0a7-4a2b-bbbc-00f39469a30c))
    (pin "2" (uuid e4794f91-7a18-4bf7-898a-8f39b1e10454))
    (instances
      (project "Helmholtz-Cage-PCB"
        (path "/d9aaf895-1acf-4d4a-8c6d-173b9df47c18/1394f77f-d475-4df0-9aeb-c92de9eae438"
          (reference "C14") (unit 1)
        )
      )
    )
  )

  (symbol (lib_id "power:GND") (at 127 161.29 0) (unit 1)
    (in_bom yes) (on_board yes) (dnp no) (fields_autoplaced)
    (uuid cdd582f8-1d38-41d4-a30d-ce27045aa73c)
    (property "Reference" "#PWR040" (at 127 167.64 0)
      (effects (font (size 1.27 1.27)) hide)
    )
    (property "Value" "GND" (at 127 166.37 0)
      (effects (font (size 1.27 1.27)))
    )
    (property "Footprint" "" (at 127 161.29 0)
      (effects (font (size 1.27 1.27)) hide)
    )
    (property "Datasheet" "" (at 127 161.29 0)
      (effects (font (size 1.27 1.27)) hide)
    )
    (pin "1" (uuid 72dc26b2-989e-41ab-8b2a-821f2eba9c34))
    (instances
      (project "Helmholtz-Cage-PCB"
        (path "/d9aaf895-1acf-4d4a-8c6d-173b9df47c18"
          (reference "#PWR040") (unit 1)
        )
        (path "/d9aaf895-1acf-4d4a-8c6d-173b9df47c18/b33baa5a-bae5-48bd-8105-ba99a8d4760e"
          (reference "#PWR05") (unit 1)
        )
        (path "/d9aaf895-1acf-4d4a-8c6d-173b9df47c18/807fbcf0-e937-4278-ae9b-91465801146a"
          (reference "#PWR010") (unit 1)
        )
        (path "/d9aaf895-1acf-4d4a-8c6d-173b9df47c18/45804b70-aff4-47bf-b1f3-3d0541769f5c"
          (reference "#PWR016") (unit 1)
        )
        (path "/d9aaf895-1acf-4d4a-8c6d-173b9df47c18/1394f77f-d475-4df0-9aeb-c92de9eae438"
          (reference "#PWR054") (unit 1)
        )
      )
    )
  )

  (symbol (lib_id "power:GND") (at 127 92.71 0) (unit 1)
    (in_bom yes) (on_board yes) (dnp no) (fields_autoplaced)
    (uuid cff1b913-72cc-490f-906e-e945cfe265e6)
    (property "Reference" "#PWR040" (at 127 99.06 0)
      (effects (font (size 1.27 1.27)) hide)
    )
    (property "Value" "GND" (at 127 97.79 0)
      (effects (font (size 1.27 1.27)))
    )
    (property "Footprint" "" (at 127 92.71 0)
      (effects (font (size 1.27 1.27)) hide)
    )
    (property "Datasheet" "" (at 127 92.71 0)
      (effects (font (size 1.27 1.27)) hide)
    )
    (pin "1" (uuid aff4683d-87d8-40a9-a678-f92386365a67))
    (instances
      (project "Helmholtz-Cage-PCB"
        (path "/d9aaf895-1acf-4d4a-8c6d-173b9df47c18"
          (reference "#PWR040") (unit 1)
        )
        (path "/d9aaf895-1acf-4d4a-8c6d-173b9df47c18/b33baa5a-bae5-48bd-8105-ba99a8d4760e"
          (reference "#PWR05") (unit 1)
        )
        (path "/d9aaf895-1acf-4d4a-8c6d-173b9df47c18/807fbcf0-e937-4278-ae9b-91465801146a"
          (reference "#PWR010") (unit 1)
        )
        (path "/d9aaf895-1acf-4d4a-8c6d-173b9df47c18/45804b70-aff4-47bf-b1f3-3d0541769f5c"
          (reference "#PWR016") (unit 1)
        )
        (path "/d9aaf895-1acf-4d4a-8c6d-173b9df47c18/1394f77f-d475-4df0-9aeb-c92de9eae438"
          (reference "#PWR053") (unit 1)
        )
      )
    )
  )

  (symbol (lib_id "power:GND") (at 237.49 99.06 0) (unit 1)
    (in_bom yes) (on_board yes) (dnp no) (fields_autoplaced)
    (uuid d58b7828-1c53-4489-a23d-41670b496086)
    (property "Reference" "#PWR040" (at 237.49 105.41 0)
      (effects (font (size 1.27 1.27)) hide)
    )
    (property "Value" "GND" (at 237.49 104.14 0)
      (effects (font (size 1.27 1.27)))
    )
    (property "Footprint" "" (at 237.49 99.06 0)
      (effects (font (size 1.27 1.27)) hide)
    )
    (property "Datasheet" "" (at 237.49 99.06 0)
      (effects (font (size 1.27 1.27)) hide)
    )
    (pin "1" (uuid 7678de10-66bd-49ae-8968-7ba3c4b24498))
    (instances
      (project "Helmholtz-Cage-PCB"
        (path "/d9aaf895-1acf-4d4a-8c6d-173b9df47c18"
          (reference "#PWR040") (unit 1)
        )
        (path "/d9aaf895-1acf-4d4a-8c6d-173b9df47c18/b33baa5a-bae5-48bd-8105-ba99a8d4760e"
          (reference "#PWR05") (unit 1)
        )
        (path "/d9aaf895-1acf-4d4a-8c6d-173b9df47c18/807fbcf0-e937-4278-ae9b-91465801146a"
          (reference "#PWR010") (unit 1)
        )
        (path "/d9aaf895-1acf-4d4a-8c6d-173b9df47c18/45804b70-aff4-47bf-b1f3-3d0541769f5c"
          (reference "#PWR016") (unit 1)
        )
        (path "/d9aaf895-1acf-4d4a-8c6d-173b9df47c18/1394f77f-d475-4df0-9aeb-c92de9eae438"
          (reference "#PWR060") (unit 1)
        )
      )
    )
  )

  (symbol (lib_id "power:GND") (at 95.25 138.43 0) (unit 1)
    (in_bom yes) (on_board yes) (dnp no) (fields_autoplaced)
    (uuid ecbb08a6-3c87-4b99-96da-130298e0408f)
    (property "Reference" "#PWR040" (at 95.25 144.78 0)
      (effects (font (size 1.27 1.27)) hide)
    )
    (property "Value" "GND" (at 95.25 143.51 0)
      (effects (font (size 1.27 1.27)))
    )
    (property "Footprint" "" (at 95.25 138.43 0)
      (effects (font (size 1.27 1.27)) hide)
    )
    (property "Datasheet" "" (at 95.25 138.43 0)
      (effects (font (size 1.27 1.27)) hide)
    )
    (pin "1" (uuid 8f5d53e6-bde2-4ac9-9a8d-029b913dbd2a))
    (instances
      (project "Helmholtz-Cage-PCB"
        (path "/d9aaf895-1acf-4d4a-8c6d-173b9df47c18"
          (reference "#PWR040") (unit 1)
        )
        (path "/d9aaf895-1acf-4d4a-8c6d-173b9df47c18/b33baa5a-bae5-48bd-8105-ba99a8d4760e"
          (reference "#PWR05") (unit 1)
        )
        (path "/d9aaf895-1acf-4d4a-8c6d-173b9df47c18/807fbcf0-e937-4278-ae9b-91465801146a"
          (reference "#PWR010") (unit 1)
        )
        (path "/d9aaf895-1acf-4d4a-8c6d-173b9df47c18/45804b70-aff4-47bf-b1f3-3d0541769f5c"
          (reference "#PWR016") (unit 1)
        )
        (path "/d9aaf895-1acf-4d4a-8c6d-173b9df47c18/1394f77f-d475-4df0-9aeb-c92de9eae438"
          (reference "#PWR049") (unit 1)
        )
      )
    )
  )

  (symbol (lib_id "Sensor_Current:ACS723xLCTR-10AB") (at 113.03 154.94 0) (unit 1)
    (in_bom yes) (on_board yes) (dnp no) (fields_autoplaced)
    (uuid f8419dcd-67dc-4b57-a19b-32ab1a96e36a)
    (property "Reference" "U6" (at 114.9859 142.24 0)
      (effects (font (size 1.27 1.27)) (justify left))
    )
    (property "Value" "ACS723xLCTR-10AB" (at 114.9859 144.78 0)
      (effects (font (size 1.27 1.27)) (justify left))
    )
    (property "Footprint" "Package_SO:SOIC-8_3.9x4.9mm_P1.27mm" (at 115.57 163.83 0)
      (effects (font (size 1.27 1.27) italic) (justify left) hide)
    )
    (property "Datasheet" "http://www.allegromicro.com/~/media/Files/Datasheets/ACS723-Datasheet.ashx?la=en" (at 113.03 154.94 0)
      (effects (font (size 1.27 1.27)) hide)
    )
    (pin "1" (uuid 6f94d3be-31ed-4ca1-9f16-71ace8fd1a5d))
    (pin "2" (uuid d084b850-1eea-4c36-8067-26a61b59527e))
    (pin "3" (uuid 53749a98-7a45-490e-a07e-516ea204572c))
    (pin "4" (uuid ae24cbdc-9df0-481e-961e-def1de01a584))
    (pin "5" (uuid fdc48018-28eb-4678-8b14-970c323162bb))
    (pin "6" (uuid 9d9be496-d82b-416b-ac7f-16b889754505))
    (pin "7" (uuid 932b0c4b-33d6-4ef9-8cd9-1075fba09823))
    (pin "8" (uuid 254c1378-ca25-4eaf-9aab-92ae008f73c5))
    (instances
      (project "Helmholtz-Cage-PCB"
        (path "/d9aaf895-1acf-4d4a-8c6d-173b9df47c18/1394f77f-d475-4df0-9aeb-c92de9eae438"
          (reference "U6") (unit 1)
        )
      )
    )
  )

  (symbol (lib_id "power:GND") (at 212.09 110.49 0) (unit 1)
    (in_bom yes) (on_board yes) (dnp no) (fields_autoplaced)
    (uuid fb28735a-f7b0-4b18-8b08-8834c8f55ca6)
    (property "Reference" "#PWR040" (at 212.09 116.84 0)
      (effects (font (size 1.27 1.27)) hide)
    )
    (property "Value" "GND" (at 212.09 115.57 0)
      (effects (font (size 1.27 1.27)))
    )
    (property "Footprint" "" (at 212.09 110.49 0)
      (effects (font (size 1.27 1.27)) hide)
    )
    (property "Datasheet" "" (at 212.09 110.49 0)
      (effects (font (size 1.27 1.27)) hide)
    )
    (pin "1" (uuid 9d4b3f22-ed0a-4bee-9750-57504079399e))
    (instances
      (project "Helmholtz-Cage-PCB"
        (path "/d9aaf895-1acf-4d4a-8c6d-173b9df47c18"
          (reference "#PWR040") (unit 1)
        )
        (path "/d9aaf895-1acf-4d4a-8c6d-173b9df47c18/b33baa5a-bae5-48bd-8105-ba99a8d4760e"
          (reference "#PWR05") (unit 1)
        )
        (path "/d9aaf895-1acf-4d4a-8c6d-173b9df47c18/807fbcf0-e937-4278-ae9b-91465801146a"
          (reference "#PWR010") (unit 1)
        )
        (path "/d9aaf895-1acf-4d4a-8c6d-173b9df47c18/45804b70-aff4-47bf-b1f3-3d0541769f5c"
          (reference "#PWR016") (unit 1)
        )
        (path "/d9aaf895-1acf-4d4a-8c6d-173b9df47c18/1394f77f-d475-4df0-9aeb-c92de9eae438"
          (reference "#PWR058") (unit 1)
        )
      )
    )
  )
)
